{
  "method": "POST",
  "body": {
    "answers": [{
      "questionId": "number | other",
      "id": "number | other"
    }, {
      "questionId": "number | other",
      "answer": "string // if it's code question or text question type"
    }]
  }
}